{
  "config": {
    "step": {
      "user": {
        "data": {
          "host": "Tacitus API URL:"
        },
        "description": "[%key:common::config_flow::description::confirm_setup%]",
        "title": "Tacitus setup"
      }
    },
    "abort": {
      "single_instance_allowed": "[%key:common::config_flow::abort::single_instance_allowed%]",
      "no_devices_found": "[%key:common::config_flow::abort::no_devices_found%]"
    }
  }
}
